{
  "client.name": "testing",
  "client.email": "test@gmail.com",
  "client.address": "testing address",
  "client.phone": "9999343434",
  "client.between_streets": "56 y 34",
  "client.colony": "Colony test",
  "client.postal_code": "45676",
  "client.state": "YUC",
  "client.county": "MEX",
  "elements": [],
  "photos": [],
  "monthly_installments": 3,
  "credit_card": "2344234565432345"
}