{
  "answers": [
    {
      "id_questions": 50,
      "options": [
        178
      ]
    },
    {
      "id_questions": 51,
      "options": [
        180
      ]
    },
    {
      "id_questions": 52,
      "options": [
        182
      ]
    },
    {
      "id_questions": 53,
      "options": [
        185
      ]
    },
    {
      "id_questions": 54,
      "options": [
        188
      ]
    },
    {
      "id_questions": 55,
      "options": [
        193
      ]
    }
  ]
}